([('AutoFakeCastle.exe',
   'D:\\Programing\\PythonProjects\\LakBloodBot\\Exports\\build\\AutoFakeCastle\\AutoFakeCastle.exe',
   'EXECUTABLE'),
  ('AutoFakeCastle.exe.manifest',
   'D:\\Programing\\PythonProjects\\LakBloodBot\\Exports\\build\\AutoFakeCastle\\AutoFakeCastle.exe.manifest',
   'BINARY'),
  ('VCRUNTIME140.dll',
   'd:\\program files (x86)\\python35-32\\VCRUNTIME140.dll',
   'BINARY'),
  ('python35.dll',
   'd:\\program files (x86)\\python35-32\\python35.dll',
   'BINARY'),
  ('_ssl', 'd:\\program files (x86)\\python35-32\\DLLs\\_ssl.pyd', 'EXTENSION'),
  ('unicodedata',
   'd:\\program files (x86)\\python35-32\\DLLs\\unicodedata.pyd',
   'EXTENSION'),
  ('_ctypes',
   'd:\\program files (x86)\\python35-32\\DLLs\\_ctypes.pyd',
   'EXTENSION'),
  ('pyexpat',
   'd:\\program files (x86)\\python35-32\\DLLs\\pyexpat.pyd',
   'EXTENSION'),
  ('_hashlib',
   'd:\\program files (x86)\\python35-32\\DLLs\\_hashlib.pyd',
   'EXTENSION'),
  ('_bz2', 'd:\\program files (x86)\\python35-32\\DLLs\\_bz2.pyd', 'EXTENSION'),
  ('_lzma',
   'd:\\program files (x86)\\python35-32\\DLLs\\_lzma.pyd',
   'EXTENSION'),
  ('_socket',
   'd:\\program files (x86)\\python35-32\\DLLs\\_socket.pyd',
   'EXTENSION'),
  ('select',
   'd:\\program files (x86)\\python35-32\\DLLs\\select.pyd',
   'EXTENSION'),
  ('base_library.zip',
   'D:\\Programing\\PythonProjects\\LakBloodBot\\Exports\\build\\AutoFakeCastle\\base_library.zip',
   'DATA'),
  ('selenium\\webdriver\\firefox\\webdriver.xpi',
   'd:\\program files '
   '(x86)\\python35-32\\lib\\site-packages\\selenium\\webdriver\\firefox\\webdriver.xpi',
   'DATA'),
  ('selenium\\webdriver\\firefox\\webdriver_prefs.json',
   'd:\\program files '
   '(x86)\\python35-32\\lib\\site-packages\\selenium\\webdriver\\firefox\\webdriver_prefs.json',
   'DATA')],)
