('D:\\Programing\\PythonProjects\\LakBloodBot\\Exports\\build\\AutoFakeCastle\\out00-PKG.pkg',
 {'BINARY': 1,
  'DATA': 1,
  'EXECUTABLE': 1,
  'EXTENSION': 1,
  'PYMODULE': 1,
  'PYSOURCE': 1,
  'PYZ': 0},
 [('out00-PYZ.pyz',
   'D:\\Programing\\PythonProjects\\LakBloodBot\\Exports\\build\\AutoFakeCastle\\out00-PYZ.pyz',
   'PYZ'),
  ('struct',
   'd:\\program files (x86)\\python35-32\\lib\\struct.pyo',
   'PYMODULE'),
  ('pyimod01_os_path',
   'd:\\program files '
   '(x86)\\python35-32\\lib\\site-packages\\PyInstaller\\loader\\pyimod01_os_path.pyc',
   'PYMODULE'),
  ('pyimod02_archive',
   'd:\\program files '
   '(x86)\\python35-32\\lib\\site-packages\\PyInstaller\\loader\\pyimod02_archive.pyc',
   'PYMODULE'),
  ('pyimod03_importers',
   'd:\\program files '
   '(x86)\\python35-32\\lib\\site-packages\\PyInstaller\\loader\\pyimod03_importers.pyc',
   'PYMODULE'),
  ('pyiboot01_bootstrap',
   'd:\\program files '
   '(x86)\\python35-32\\lib\\site-packages\\PyInstaller\\loader\\pyiboot01_bootstrap.py',
   'PYSOURCE'),
  ('AutoFakeCastle',
   'D:\\Programing\\PythonProjects\\LakBloodBot\\Exports\\AutoFakeCastle.py',
   'PYSOURCE'),
  ('VCRUNTIME140.dll',
   'd:\\program files (x86)\\python35-32\\VCRUNTIME140.dll',
   'BINARY'),
  ('python35.dll',
   'd:\\program files (x86)\\python35-32\\python35.dll',
   'BINARY'),
  ('_ssl', 'd:\\program files (x86)\\python35-32\\DLLs\\_ssl.pyd', 'EXTENSION'),
  ('unicodedata',
   'd:\\program files (x86)\\python35-32\\DLLs\\unicodedata.pyd',
   'EXTENSION'),
  ('_ctypes',
   'd:\\program files (x86)\\python35-32\\DLLs\\_ctypes.pyd',
   'EXTENSION'),
  ('pyexpat',
   'd:\\program files (x86)\\python35-32\\DLLs\\pyexpat.pyd',
   'EXTENSION'),
  ('_hashlib',
   'd:\\program files (x86)\\python35-32\\DLLs\\_hashlib.pyd',
   'EXTENSION'),
  ('select',
   'd:\\program files (x86)\\python35-32\\DLLs\\select.pyd',
   'EXTENSION'),
  ('_bz2', 'd:\\program files (x86)\\python35-32\\DLLs\\_bz2.pyd', 'EXTENSION'),
  ('_lzma',
   'd:\\program files (x86)\\python35-32\\DLLs\\_lzma.pyd',
   'EXTENSION'),
  ('_socket',
   'd:\\program files (x86)\\python35-32\\DLLs\\_socket.pyd',
   'EXTENSION'),
  ('base_library.zip',
   'D:\\Programing\\PythonProjects\\LakBloodBot\\Exports\\build\\AutoFakeCastle\\base_library.zip',
   'DATA'),
  ('selenium\\webdriver\\firefox\\webdriver_prefs.json',
   'd:\\program files '
   '(x86)\\python35-32\\lib\\site-packages\\selenium\\webdriver\\firefox\\webdriver_prefs.json',
   'DATA'),
  ('selenium\\webdriver\\firefox\\webdriver.xpi',
   'd:\\program files '
   '(x86)\\python35-32\\lib\\site-packages\\selenium\\webdriver\\firefox\\webdriver.xpi',
   'DATA'),
  ('AutoFakeCastle.exe.manifest',
   'D:\\Programing\\PythonProjects\\LakBloodBot\\Exports\\build\\AutoFakeCastle\\AutoFakeCastle.exe.manifest',
   'BINARY'),
  ('pyi-windows-manifest-filename AutoFakeCastle.exe.manifest', '', 'OPTION')],
 False,
 False,
 False)
