(['D:\\Programing\\PythonProjects\\LakBloodBot\\Exports\\AutoFakeCastle.py'],
 ['D:\\Programing\\PythonProjects\\LakBloodBot\\Exports',
  'D:\\Programing\\PythonProjects\\LakBloodBot\\Exports'],
 ['codecs'],
 [],
 [],
 [],
 False,
 False,
 [('AutoFakeCastle',
   'D:\\Programing\\PythonProjects\\LakBloodBot\\Exports\\AutoFakeCastle.py',
   'PYSOURCE')],
 [('ntpath',
   'd:\\program files (x86)\\python35-32\\lib\\ntpath.py',
   'PYMODULE'),
  ('_strptime',
   'd:\\program files (x86)\\python35-32\\lib\\_strptime.py',
   'PYMODULE'),
  ('stringprep',
   'd:\\program files (x86)\\python35-32\\lib\\stringprep.py',
   'PYMODULE'),
  ('_compat_pickle',
   'd:\\program files (x86)\\python35-32\\lib\\_compat_pickle.py',
   'PYMODULE'),
  ('pickle',
   'd:\\program files (x86)\\python35-32\\lib\\pickle.py',
   'PYMODULE'),
  ('__future__',
   'd:\\program files (x86)\\python35-32\\lib\\__future__.py',
   'PYMODULE'),
  ('argparse',
   'd:\\program files (x86)\\python35-32\\lib\\argparse.py',
   'PYMODULE'),
  ('difflib',
   'd:\\program files (x86)\\python35-32\\lib\\difflib.py',
   'PYMODULE'),
  ('ast', 'd:\\program files (x86)\\python35-32\\lib\\ast.py', 'PYMODULE'),
  ('imp', 'd:\\program files (x86)\\python35-32\\lib\\imp.py', 'PYMODULE'),
  ('inspect',
   'd:\\program files (x86)\\python35-32\\lib\\inspect.py',
   'PYMODULE'),
  ('os', 'd:\\program files (x86)\\python35-32\\lib\\os.py', 'PYMODULE'),
  ('cmd', 'd:\\program files (x86)\\python35-32\\lib\\cmd.py', 'PYMODULE'),
  ('bdb', 'd:\\program files (x86)\\python35-32\\lib\\bdb.py', 'PYMODULE'),
  ('opcode',
   'd:\\program files (x86)\\python35-32\\lib\\opcode.py',
   'PYMODULE'),
  ('dis', 'd:\\program files (x86)\\python35-32\\lib\\dis.py', 'PYMODULE'),
  ('codeop',
   'd:\\program files (x86)\\python35-32\\lib\\codeop.py',
   'PYMODULE'),
  ('code', 'd:\\program files (x86)\\python35-32\\lib\\code.py', 'PYMODULE'),
  ('glob', 'd:\\program files (x86)\\python35-32\\lib\\glob.py', 'PYMODULE'),
  ('shlex', 'd:\\program files (x86)\\python35-32\\lib\\shlex.py', 'PYMODULE'),
  ('importlib._bootstrap',
   'd:\\program files (x86)\\python35-32\\lib\\importlib\\_bootstrap.py',
   'PYMODULE'),
  ('importlib._bootstrap_external',
   'd:\\program files '
   '(x86)\\python35-32\\lib\\importlib\\_bootstrap_external.py',
   'PYMODULE'),
  ('importlib.machinery',
   'd:\\program files (x86)\\python35-32\\lib\\importlib\\machinery.py',
   'PYMODULE'),
  ('importlib.util',
   'd:\\program files (x86)\\python35-32\\lib\\importlib\\util.py',
   'PYMODULE'),
  ('importlib.abc',
   'd:\\program files (x86)\\python35-32\\lib\\importlib\\abc.py',
   'PYMODULE'),
  ('importlib',
   'd:\\program files (x86)\\python35-32\\lib\\importlib\\__init__.py',
   'PYMODULE'),
  ('pkgutil',
   'd:\\program files (x86)\\python35-32\\lib\\pkgutil.py',
   'PYMODULE'),
  ('ctypes._endian',
   'd:\\program files (x86)\\python35-32\\lib\\ctypes\\_endian.py',
   'PYMODULE'),
  ('ctypes',
   'd:\\program files (x86)\\python35-32\\lib\\ctypes\\__init__.py',
   'PYMODULE'),
  ('ctypes.wintypes',
   'd:\\program files (x86)\\python35-32\\lib\\ctypes\\wintypes.py',
   'PYMODULE'),
  ('xml',
   'd:\\program files (x86)\\python35-32\\lib\\xml\\__init__.py',
   'PYMODULE'),
  ('xml.sax.expatreader',
   'd:\\program files (x86)\\python35-32\\lib\\xml\\sax\\expatreader.py',
   'PYMODULE'),
  ('xml.sax.saxutils',
   'd:\\program files (x86)\\python35-32\\lib\\xml\\sax\\saxutils.py',
   'PYMODULE'),
  ('urllib.request',
   'd:\\program files (x86)\\python35-32\\lib\\urllib\\request.py',
   'PYMODULE'),
  ('getpass',
   'd:\\program files (x86)\\python35-32\\lib\\getpass.py',
   'PYMODULE'),
  ('nturl2path',
   'd:\\program files (x86)\\python35-32\\lib\\nturl2path.py',
   'PYMODULE'),
  ('ftplib',
   'd:\\program files (x86)\\python35-32\\lib\\ftplib.py',
   'PYMODULE'),
  ('netrc', 'd:\\program files (x86)\\python35-32\\lib\\netrc.py', 'PYMODULE'),
  ('http.cookiejar',
   'd:\\program files (x86)\\python35-32\\lib\\http\\cookiejar.py',
   'PYMODULE'),
  ('urllib.response',
   'd:\\program files (x86)\\python35-32\\lib\\urllib\\response.py',
   'PYMODULE'),
  ('urllib.error',
   'd:\\program files (x86)\\python35-32\\lib\\urllib\\error.py',
   'PYMODULE'),
  ('bisect',
   'd:\\program files (x86)\\python35-32\\lib\\bisect.py',
   'PYMODULE'),
  ('xml.sax',
   'd:\\program files (x86)\\python35-32\\lib\\xml\\sax\\__init__.py',
   'PYMODULE'),
  ('xml.sax.handler',
   'd:\\program files (x86)\\python35-32\\lib\\xml\\sax\\handler.py',
   'PYMODULE'),
  ('xml.sax._exceptions',
   'd:\\program files (x86)\\python35-32\\lib\\xml\\sax\\_exceptions.py',
   'PYMODULE'),
  ('xml.sax.xmlreader',
   'd:\\program files (x86)\\python35-32\\lib\\xml\\sax\\xmlreader.py',
   'PYMODULE'),
  ('xml.parsers',
   'd:\\program files (x86)\\python35-32\\lib\\xml\\parsers\\__init__.py',
   'PYMODULE'),
  ('xml.parsers.expat',
   'd:\\program files (x86)\\python35-32\\lib\\xml\\parsers\\expat.py',
   'PYMODULE'),
  ('plistlib',
   'd:\\program files (x86)\\python35-32\\lib\\plistlib.py',
   'PYMODULE'),
  ('platform',
   'd:\\program files (x86)\\python35-32\\lib\\platform.py',
   'PYMODULE'),
  ('urllib.parse',
   'd:\\program files (x86)\\python35-32\\lib\\urllib\\parse.py',
   'PYMODULE'),
  ('tempfile',
   'd:\\program files (x86)\\python35-32\\lib\\tempfile.py',
   'PYMODULE'),
  ('subprocess',
   'd:\\program files (x86)\\python35-32\\lib\\subprocess.py',
   'PYMODULE'),
  ('tty', 'd:\\program files (x86)\\python35-32\\lib\\tty.py', 'PYMODULE'),
  ('pydoc_data',
   'd:\\program files (x86)\\python35-32\\lib\\pydoc_data\\__init__.py',
   'PYMODULE'),
  ('pydoc_data.topics',
   'd:\\program files (x86)\\python35-32\\lib\\pydoc_data\\topics.py',
   'PYMODULE'),
  ('textwrap',
   'd:\\program files (x86)\\python35-32\\lib\\textwrap.py',
   'PYMODULE'),
  ('html.entities',
   'd:\\program files (x86)\\python35-32\\lib\\html\\entities.py',
   'PYMODULE'),
  ('html',
   'd:\\program files (x86)\\python35-32\\lib\\html\\__init__.py',
   'PYMODULE'),
  ('ipaddress',
   'd:\\program files (x86)\\python35-32\\lib\\ipaddress.py',
   'PYMODULE'),
  ('ssl', 'd:\\program files (x86)\\python35-32\\lib\\ssl.py', 'PYMODULE'),
  ('http.client',
   'd:\\program files (x86)\\python35-32\\lib\\http\\client.py',
   'PYMODULE'),
  ('mimetypes',
   'd:\\program files (x86)\\python35-32\\lib\\mimetypes.py',
   'PYMODULE'),
  ('socketserver',
   'd:\\program files (x86)\\python35-32\\lib\\socketserver.py',
   'PYMODULE'),
  ('http',
   'd:\\program files (x86)\\python35-32\\lib\\http\\__init__.py',
   'PYMODULE'),
  ('http.server',
   'd:\\program files (x86)\\python35-32\\lib\\http\\server.py',
   'PYMODULE'),
  ('uu', 'd:\\program files (x86)\\python35-32\\lib\\uu.py', 'PYMODULE'),
  ('quopri',
   'd:\\program files (x86)\\python35-32\\lib\\quopri.py',
   'PYMODULE'),
  ('email.feedparser',
   'd:\\program files (x86)\\python35-32\\lib\\email\\feedparser.py',
   'PYMODULE'),
  ('email.parser',
   'd:\\program files (x86)\\python35-32\\lib\\email\\parser.py',
   'PYMODULE'),
  ('email',
   'd:\\program files (x86)\\python35-32\\lib\\email\\__init__.py',
   'PYMODULE'),
  ('optparse',
   'd:\\program files (x86)\\python35-32\\lib\\optparse.py',
   'PYMODULE'),
  ('calendar',
   'd:\\program files (x86)\\python35-32\\lib\\calendar.py',
   'PYMODULE'),
  ('email._parseaddr',
   'd:\\program files (x86)\\python35-32\\lib\\email\\_parseaddr.py',
   'PYMODULE'),
  ('email.utils',
   'd:\\program files (x86)\\python35-32\\lib\\email\\utils.py',
   'PYMODULE'),
  ('email.errors',
   'd:\\program files (x86)\\python35-32\\lib\\email\\errors.py',
   'PYMODULE'),
  ('email.header',
   'd:\\program files (x86)\\python35-32\\lib\\email\\header.py',
   'PYMODULE'),
  ('email._policybase',
   'd:\\program files (x86)\\python35-32\\lib\\email\\_policybase.py',
   'PYMODULE'),
  ('email.base64mime',
   'd:\\program files (x86)\\python35-32\\lib\\email\\base64mime.py',
   'PYMODULE'),
  ('email.encoders',
   'd:\\program files (x86)\\python35-32\\lib\\email\\encoders.py',
   'PYMODULE'),
  ('email.charset',
   'd:\\program files (x86)\\python35-32\\lib\\email\\charset.py',
   'PYMODULE'),
  ('base64',
   'd:\\program files (x86)\\python35-32\\lib\\base64.py',
   'PYMODULE'),
  ('email._encoded_words',
   'd:\\program files (x86)\\python35-32\\lib\\email\\_encoded_words.py',
   'PYMODULE'),
  ('hashlib',
   'd:\\program files (x86)\\python35-32\\lib\\hashlib.py',
   'PYMODULE'),
  ('email.generator',
   'd:\\program files (x86)\\python35-32\\lib\\email\\generator.py',
   'PYMODULE'),
  ('email.iterators',
   'd:\\program files (x86)\\python35-32\\lib\\email\\iterators.py',
   'PYMODULE'),
  ('urllib',
   'd:\\program files (x86)\\python35-32\\lib\\urllib\\__init__.py',
   'PYMODULE'),
  ('email._header_value_parser',
   'd:\\program files (x86)\\python35-32\\lib\\email\\_header_value_parser.py',
   'PYMODULE'),
  ('email.headerregistry',
   'd:\\program files (x86)\\python35-32\\lib\\email\\headerregistry.py',
   'PYMODULE'),
  ('email.quoprimime',
   'd:\\program files (x86)\\python35-32\\lib\\email\\quoprimime.py',
   'PYMODULE'),
  ('email.contentmanager',
   'd:\\program files (x86)\\python35-32\\lib\\email\\contentmanager.py',
   'PYMODULE'),
  ('email.policy',
   'd:\\program files (x86)\\python35-32\\lib\\email\\policy.py',
   'PYMODULE'),
  ('email.message',
   'd:\\program files (x86)\\python35-32\\lib\\email\\message.py',
   'PYMODULE'),
  ('gzip', 'd:\\program files (x86)\\python35-32\\lib\\gzip.py', 'PYMODULE'),
  ('tarfile',
   'd:\\program files (x86)\\python35-32\\lib\\tarfile.py',
   'PYMODULE'),
  ('bz2', 'd:\\program files (x86)\\python35-32\\lib\\bz2.py', 'PYMODULE'),
  ('_compression',
   'd:\\program files (x86)\\python35-32\\lib\\_compression.py',
   'PYMODULE'),
  ('lzma', 'd:\\program files (x86)\\python35-32\\lib\\lzma.py', 'PYMODULE'),
  ('_dummy_thread',
   'd:\\program files (x86)\\python35-32\\lib\\_dummy_thread.py',
   'PYMODULE'),
  ('dummy_threading',
   'd:\\program files (x86)\\python35-32\\lib\\dummy_threading.py',
   'PYMODULE'),
  ('py_compile',
   'd:\\program files (x86)\\python35-32\\lib\\py_compile.py',
   'PYMODULE'),
  ('zipfile',
   'd:\\program files (x86)\\python35-32\\lib\\zipfile.py',
   'PYMODULE'),
  ('shutil',
   'd:\\program files (x86)\\python35-32\\lib\\shutil.py',
   'PYMODULE'),
  ('selectors',
   'd:\\program files (x86)\\python35-32\\lib\\selectors.py',
   'PYMODULE'),
  ('socket',
   'd:\\program files (x86)\\python35-32\\lib\\socket.py',
   'PYMODULE'),
  ('webbrowser',
   'd:\\program files (x86)\\python35-32\\lib\\webbrowser.py',
   'PYMODULE'),
  ('pydoc', 'd:\\program files (x86)\\python35-32\\lib\\pydoc.py', 'PYMODULE'),
  ('copy', 'd:\\program files (x86)\\python35-32\\lib\\copy.py', 'PYMODULE'),
  ('struct',
   'd:\\program files (x86)\\python35-32\\lib\\struct.py',
   'PYMODULE'),
  ('token', 'd:\\program files (x86)\\python35-32\\lib\\token.py', 'PYMODULE'),
  ('tokenize',
   'd:\\program files (x86)\\python35-32\\lib\\tokenize.py',
   'PYMODULE'),
  ('gettext',
   'd:\\program files (x86)\\python35-32\\lib\\gettext.py',
   'PYMODULE'),
  ('getopt',
   'd:\\program files (x86)\\python35-32\\lib\\getopt.py',
   'PYMODULE'),
  ('pdb', 'd:\\program files (x86)\\python35-32\\lib\\pdb.py', 'PYMODULE'),
  ('unittest.util',
   'd:\\program files (x86)\\python35-32\\lib\\unittest\\util.py',
   'PYMODULE'),
  ('unittest.result',
   'd:\\program files (x86)\\python35-32\\lib\\unittest\\result.py',
   'PYMODULE'),
  ('string',
   'd:\\program files (x86)\\python35-32\\lib\\string.py',
   'PYMODULE'),
  ('_threading_local',
   'd:\\program files (x86)\\python35-32\\lib\\_threading_local.py',
   'PYMODULE'),
  ('threading',
   'd:\\program files (x86)\\python35-32\\lib\\threading.py',
   'PYMODULE'),
  ('logging',
   'd:\\program files (x86)\\python35-32\\lib\\logging\\__init__.py',
   'PYMODULE'),
  ('pprint',
   'd:\\program files (x86)\\python35-32\\lib\\pprint.py',
   'PYMODULE'),
  ('contextlib',
   'd:\\program files (x86)\\python35-32\\lib\\contextlib.py',
   'PYMODULE'),
  ('unittest.case',
   'd:\\program files (x86)\\python35-32\\lib\\unittest\\case.py',
   'PYMODULE'),
  ('unittest.suite',
   'd:\\program files (x86)\\python35-32\\lib\\unittest\\suite.py',
   'PYMODULE'),
  ('stat', 'd:\\program files (x86)\\python35-32\\lib\\stat.py', 'PYMODULE'),
  ('genericpath',
   'd:\\program files (x86)\\python35-32\\lib\\genericpath.py',
   'PYMODULE'),
  ('posixpath',
   'd:\\program files (x86)\\python35-32\\lib\\posixpath.py',
   'PYMODULE'),
  ('fnmatch',
   'd:\\program files (x86)\\python35-32\\lib\\fnmatch.py',
   'PYMODULE'),
  ('unittest.loader',
   'd:\\program files (x86)\\python35-32\\lib\\unittest\\loader.py',
   'PYMODULE'),
  ('warnings',
   'd:\\program files (x86)\\python35-32\\lib\\warnings.py',
   'PYMODULE'),
  ('unittest.runner',
   'd:\\program files (x86)\\python35-32\\lib\\unittest\\runner.py',
   'PYMODULE'),
  ('unittest.main',
   'd:\\program files (x86)\\python35-32\\lib\\unittest\\main.py',
   'PYMODULE'),
  ('enum', 'd:\\program files (x86)\\python35-32\\lib\\enum.py', 'PYMODULE'),
  ('signal',
   'd:\\program files (x86)\\python35-32\\lib\\signal.py',
   'PYMODULE'),
  ('unittest.signals',
   'd:\\program files (x86)\\python35-32\\lib\\unittest\\signals.py',
   'PYMODULE'),
  ('unittest',
   'd:\\program files (x86)\\python35-32\\lib\\unittest\\__init__.py',
   'PYMODULE'),
  ('doctest',
   'd:\\program files (x86)\\python35-32\\lib\\doctest.py',
   'PYMODULE'),
  ('MainLibFile',
   'D:\\Programing\\PythonProjects\\LakBloodBot\\Exports\\MainLibFile.py',
   'PYMODULE'),
  ('selenium.webdriver',
   'd:\\program files '
   '(x86)\\python35-32\\lib\\site-packages\\selenium\\webdriver\\__init__.py',
   'PYMODULE'),
  ('selenium.webdriver.common.proxy',
   'd:\\program files '
   '(x86)\\python35-32\\lib\\site-packages\\selenium\\webdriver\\common\\proxy.py',
   'PYMODULE'),
  ('selenium.webdriver.common',
   'd:\\program files '
   '(x86)\\python35-32\\lib\\site-packages\\selenium\\webdriver\\common\\__init__.py',
   'PYMODULE'),
  ('selenium.webdriver.common.utils',
   'd:\\program files '
   '(x86)\\python35-32\\lib\\site-packages\\selenium\\webdriver\\common\\utils.py',
   'PYMODULE'),
  ('selenium.webdriver.common.touch_actions',
   'd:\\program files '
   '(x86)\\python35-32\\lib\\site-packages\\selenium\\webdriver\\common\\touch_actions.py',
   'PYMODULE'),
  ('selenium.webdriver.remote.command',
   'd:\\program files '
   '(x86)\\python35-32\\lib\\site-packages\\selenium\\webdriver\\remote\\command.py',
   'PYMODULE'),
  ('selenium.webdriver.remote',
   'd:\\program files '
   '(x86)\\python35-32\\lib\\site-packages\\selenium\\webdriver\\remote\\__init__.py',
   'PYMODULE'),
  ('selenium.webdriver.remote.utils',
   'd:\\program files '
   '(x86)\\python35-32\\lib\\site-packages\\selenium\\webdriver\\remote\\utils.py',
   'PYMODULE'),
  ('json',
   'd:\\program files (x86)\\python35-32\\lib\\json\\__init__.py',
   'PYMODULE'),
  ('json.encoder',
   'd:\\program files (x86)\\python35-32\\lib\\json\\encoder.py',
   'PYMODULE'),
  ('json.decoder',
   'd:\\program files (x86)\\python35-32\\lib\\json\\decoder.py',
   'PYMODULE'),
  ('json.scanner',
   'd:\\program files (x86)\\python35-32\\lib\\json\\scanner.py',
   'PYMODULE'),
  ('selenium.webdriver.common.desired_capabilities',
   'd:\\program files '
   '(x86)\\python35-32\\lib\\site-packages\\selenium\\webdriver\\common\\desired_capabilities.py',
   'PYMODULE'),
  ('selenium.webdriver.remote.webdriver',
   'd:\\program files '
   '(x86)\\python35-32\\lib\\site-packages\\selenium\\webdriver\\remote\\webdriver.py',
   'PYMODULE'),
  ('selenium.webdriver.common.html5.application_cache',
   'd:\\program files '
   '(x86)\\python35-32\\lib\\site-packages\\selenium\\webdriver\\common\\html5\\application_cache.py',
   'PYMODULE'),
  ('selenium.webdriver.common.html5',
   'd:\\program files '
   '(x86)\\python35-32\\lib\\site-packages\\selenium\\webdriver\\common\\html5\\__init__.py',
   'PYMODULE'),
  ('selenium.webdriver.common.by',
   'd:\\program files '
   '(x86)\\python35-32\\lib\\site-packages\\selenium\\webdriver\\common\\by.py',
   'PYMODULE'),
  ('selenium.webdriver.remote.file_detector',
   'd:\\program files '
   '(x86)\\python35-32\\lib\\site-packages\\selenium\\webdriver\\remote\\file_detector.py',
   'PYMODULE'),
  ('selenium.webdriver.remote.mobile',
   'd:\\program files '
   '(x86)\\python35-32\\lib\\site-packages\\selenium\\webdriver\\remote\\mobile.py',
   'PYMODULE'),
  ('selenium.webdriver.remote.switch_to',
   'd:\\program files '
   '(x86)\\python35-32\\lib\\site-packages\\selenium\\webdriver\\remote\\switch_to.py',
   'PYMODULE'),
  ('selenium.webdriver.common.alert',
   'd:\\program files '
   '(x86)\\python35-32\\lib\\site-packages\\selenium\\webdriver\\common\\alert.py',
   'PYMODULE'),
  ('selenium.webdriver.remote.errorhandler',
   'd:\\program files '
   '(x86)\\python35-32\\lib\\site-packages\\selenium\\webdriver\\remote\\errorhandler.py',
   'PYMODULE'),
  ('selenium.webdriver.remote.remote_connection',
   'd:\\program files '
   '(x86)\\python35-32\\lib\\site-packages\\selenium\\webdriver\\remote\\remote_connection.py',
   'PYMODULE'),
  ('selenium.webdriver.remote.webelement',
   'd:\\program files '
   '(x86)\\python35-32\\lib\\site-packages\\selenium\\webdriver\\remote\\webelement.py',
   'PYMODULE'),
  ('numbers',
   'd:\\program files (x86)\\python35-32\\lib\\numbers.py',
   'PYMODULE'),
  ('selenium.webdriver.android.webdriver',
   'd:\\program files '
   '(x86)\\python35-32\\lib\\site-packages\\selenium\\webdriver\\android\\webdriver.py',
   'PYMODULE'),
  ('selenium.webdriver.android',
   'd:\\program files '
   '(x86)\\python35-32\\lib\\site-packages\\selenium\\webdriver\\android\\__init__.py',
   'PYMODULE'),
  ('selenium.webdriver.phantomjs.webdriver',
   'd:\\program files '
   '(x86)\\python35-32\\lib\\site-packages\\selenium\\webdriver\\phantomjs\\webdriver.py',
   'PYMODULE'),
  ('selenium.webdriver.phantomjs',
   'd:\\program files '
   '(x86)\\python35-32\\lib\\site-packages\\selenium\\webdriver\\phantomjs\\__init__.py',
   'PYMODULE'),
  ('selenium.webdriver.phantomjs.service',
   'd:\\program files '
   '(x86)\\python35-32\\lib\\site-packages\\selenium\\webdriver\\phantomjs\\service.py',
   'PYMODULE'),
  ('selenium.webdriver.blackberry.webdriver',
   'd:\\program files '
   '(x86)\\python35-32\\lib\\site-packages\\selenium\\webdriver\\blackberry\\webdriver.py',
   'PYMODULE'),
  ('selenium.webdriver.blackberry',
   'd:\\program files '
   '(x86)\\python35-32\\lib\\site-packages\\selenium\\webdriver\\blackberry\\__init__.py',
   'PYMODULE'),
  ('selenium.webdriver.support.ui',
   'd:\\program files '
   '(x86)\\python35-32\\lib\\site-packages\\selenium\\webdriver\\support\\ui.py',
   'PYMODULE'),
  ('selenium.webdriver.support',
   'd:\\program files '
   '(x86)\\python35-32\\lib\\site-packages\\selenium\\webdriver\\support\\__init__.py',
   'PYMODULE'),
  ('selenium.webdriver.support.wait',
   'd:\\program files '
   '(x86)\\python35-32\\lib\\site-packages\\selenium\\webdriver\\support\\wait.py',
   'PYMODULE'),
  ('selenium.webdriver.support.select',
   'd:\\program files '
   '(x86)\\python35-32\\lib\\site-packages\\selenium\\webdriver\\support\\select.py',
   'PYMODULE'),
  ('selenium.webdriver.safari.webdriver',
   'd:\\program files '
   '(x86)\\python35-32\\lib\\site-packages\\selenium\\webdriver\\safari\\webdriver.py',
   'PYMODULE'),
  ('selenium.webdriver.safari',
   'd:\\program files '
   '(x86)\\python35-32\\lib\\site-packages\\selenium\\webdriver\\safari\\__init__.py',
   'PYMODULE'),
  ('selenium.webdriver.safari.service',
   'd:\\program files '
   '(x86)\\python35-32\\lib\\site-packages\\selenium\\webdriver\\safari\\service.py',
   'PYMODULE'),
  ('selenium.webdriver.opera.webdriver',
   'd:\\program files '
   '(x86)\\python35-32\\lib\\site-packages\\selenium\\webdriver\\opera\\webdriver.py',
   'PYMODULE'),
  ('selenium.webdriver.opera',
   'd:\\program files '
   '(x86)\\python35-32\\lib\\site-packages\\selenium\\webdriver\\opera\\__init__.py',
   'PYMODULE'),
  ('selenium.webdriver.opera.options',
   'd:\\program files '
   '(x86)\\python35-32\\lib\\site-packages\\selenium\\webdriver\\opera\\options.py',
   'PYMODULE'),
  ('selenium.webdriver.edge.webdriver',
   'd:\\program files '
   '(x86)\\python35-32\\lib\\site-packages\\selenium\\webdriver\\edge\\webdriver.py',
   'PYMODULE'),
  ('selenium.webdriver.edge',
   'd:\\program files '
   '(x86)\\python35-32\\lib\\site-packages\\selenium\\webdriver\\edge\\__init__.py',
   'PYMODULE'),
  ('selenium.webdriver.edge.service',
   'd:\\program files '
   '(x86)\\python35-32\\lib\\site-packages\\selenium\\webdriver\\edge\\service.py',
   'PYMODULE'),
  ('selenium.webdriver.ie.webdriver',
   'd:\\program files '
   '(x86)\\python35-32\\lib\\site-packages\\selenium\\webdriver\\ie\\webdriver.py',
   'PYMODULE'),
  ('selenium.webdriver.ie',
   'd:\\program files '
   '(x86)\\python35-32\\lib\\site-packages\\selenium\\webdriver\\ie\\__init__.py',
   'PYMODULE'),
  ('selenium.webdriver.ie.service',
   'd:\\program files '
   '(x86)\\python35-32\\lib\\site-packages\\selenium\\webdriver\\ie\\service.py',
   'PYMODULE'),
  ('selenium.webdriver.chrome.options',
   'd:\\program files '
   '(x86)\\python35-32\\lib\\site-packages\\selenium\\webdriver\\chrome\\options.py',
   'PYMODULE'),
  ('selenium.webdriver.chrome',
   'd:\\program files '
   '(x86)\\python35-32\\lib\\site-packages\\selenium\\webdriver\\chrome\\__init__.py',
   'PYMODULE'),
  ('selenium.webdriver.chrome.webdriver',
   'd:\\program files '
   '(x86)\\python35-32\\lib\\site-packages\\selenium\\webdriver\\chrome\\webdriver.py',
   'PYMODULE'),
  ('selenium.webdriver.chrome.service',
   'd:\\program files '
   '(x86)\\python35-32\\lib\\site-packages\\selenium\\webdriver\\chrome\\service.py',
   'PYMODULE'),
  ('selenium.webdriver.chrome.remote_connection',
   'd:\\program files '
   '(x86)\\python35-32\\lib\\site-packages\\selenium\\webdriver\\chrome\\remote_connection.py',
   'PYMODULE'),
  ('selenium.webdriver.firefox.firefox_profile',
   'd:\\program files '
   '(x86)\\python35-32\\lib\\site-packages\\selenium\\webdriver\\firefox\\firefox_profile.py',
   'PYMODULE'),
  ('selenium.webdriver.firefox',
   'd:\\program files '
   '(x86)\\python35-32\\lib\\site-packages\\selenium\\webdriver\\firefox\\__init__.py',
   'PYMODULE'),
  ('xml.dom.minidom',
   'd:\\program files (x86)\\python35-32\\lib\\xml\\dom\\minidom.py',
   'PYMODULE'),
  ('xml.dom.pulldom',
   'd:\\program files (x86)\\python35-32\\lib\\xml\\dom\\pulldom.py',
   'PYMODULE'),
  ('xml.dom.expatbuilder',
   'd:\\program files (x86)\\python35-32\\lib\\xml\\dom\\expatbuilder.py',
   'PYMODULE'),
  ('xml.dom.NodeFilter',
   'd:\\program files (x86)\\python35-32\\lib\\xml\\dom\\NodeFilter.py',
   'PYMODULE'),
  ('xml.dom.xmlbuilder',
   'd:\\program files (x86)\\python35-32\\lib\\xml\\dom\\xmlbuilder.py',
   'PYMODULE'),
  ('xml.dom.minicompat',
   'd:\\program files (x86)\\python35-32\\lib\\xml\\dom\\minicompat.py',
   'PYMODULE'),
  ('xml.dom.domreg',
   'd:\\program files (x86)\\python35-32\\lib\\xml\\dom\\domreg.py',
   'PYMODULE'),
  ('xml.dom',
   'd:\\program files (x86)\\python35-32\\lib\\xml\\dom\\__init__.py',
   'PYMODULE'),
  ('selenium.webdriver.firefox.webdriver',
   'd:\\program files '
   '(x86)\\python35-32\\lib\\site-packages\\selenium\\webdriver\\firefox\\webdriver.py',
   'PYMODULE'),
  ('selenium.webdriver.firefox.extension_connection',
   'd:\\program files '
   '(x86)\\python35-32\\lib\\site-packages\\selenium\\webdriver\\firefox\\extension_connection.py',
   'PYMODULE'),
  ('selenium.webdriver.firefox.service',
   'd:\\program files '
   '(x86)\\python35-32\\lib\\site-packages\\selenium\\webdriver\\firefox\\service.py',
   'PYMODULE'),
  ('selenium.webdriver.firefox.firefox_binary',
   'd:\\program files '
   '(x86)\\python35-32\\lib\\site-packages\\selenium\\webdriver\\firefox\\firefox_binary.py',
   'PYMODULE'),
  ('selenium',
   'd:\\program files '
   '(x86)\\python35-32\\lib\\site-packages\\selenium\\__init__.py',
   'PYMODULE'),
  ('selenium.selenium',
   'd:\\program files '
   '(x86)\\python35-32\\lib\\site-packages\\selenium\\selenium.py',
   'PYMODULE'),
  ('datetime',
   'd:\\program files (x86)\\python35-32\\lib\\datetime.py',
   'PYMODULE'),
  ('random',
   'd:\\program files (x86)\\python35-32\\lib\\random.py',
   'PYMODULE'),
  ('selenium.webdriver.common.action_chains',
   'd:\\program files '
   '(x86)\\python35-32\\lib\\site-packages\\selenium\\webdriver\\common\\action_chains.py',
   'PYMODULE'),
  ('selenium.common.exceptions',
   'd:\\program files '
   '(x86)\\python35-32\\lib\\site-packages\\selenium\\common\\exceptions.py',
   'PYMODULE'),
  ('selenium.common',
   'd:\\program files '
   '(x86)\\python35-32\\lib\\site-packages\\selenium\\common\\__init__.py',
   'PYMODULE'),
  ('selenium.webdriver.common.keys',
   'd:\\program files '
   '(x86)\\python35-32\\lib\\site-packages\\selenium\\webdriver\\common\\keys.py',
   'PYMODULE')],
 [('VCRUNTIME140.dll',
   'd:\\program files (x86)\\python35-32\\VCRUNTIME140.dll',
   'BINARY'),
  ('python35.dll',
   'd:\\program files (x86)\\python35-32\\python35.dll',
   'BINARY'),
  ('_ssl', 'd:\\program files (x86)\\python35-32\\DLLs\\_ssl.pyd', 'EXTENSION'),
  ('unicodedata',
   'd:\\program files (x86)\\python35-32\\DLLs\\unicodedata.pyd',
   'EXTENSION'),
  ('_ctypes',
   'd:\\program files (x86)\\python35-32\\DLLs\\_ctypes.pyd',
   'EXTENSION'),
  ('pyexpat',
   'd:\\program files (x86)\\python35-32\\DLLs\\pyexpat.pyd',
   'EXTENSION'),
  ('_hashlib',
   'd:\\program files (x86)\\python35-32\\DLLs\\_hashlib.pyd',
   'EXTENSION'),
  ('select',
   'd:\\program files (x86)\\python35-32\\DLLs\\select.pyd',
   'EXTENSION'),
  ('_bz2', 'd:\\program files (x86)\\python35-32\\DLLs\\_bz2.pyd', 'EXTENSION'),
  ('_lzma',
   'd:\\program files (x86)\\python35-32\\DLLs\\_lzma.pyd',
   'EXTENSION'),
  ('_socket',
   'd:\\program files (x86)\\python35-32\\DLLs\\_socket.pyd',
   'EXTENSION')],
 [],
 [],
 [('base_library.zip',
   'D:\\Programing\\PythonProjects\\LakBloodBot\\Exports\\build\\AutoFakeCastle\\base_library.zip',
   'DATA'),
  ('selenium\\webdriver\\firefox\\webdriver_prefs.json',
   'd:\\program files '
   '(x86)\\python35-32\\lib\\site-packages\\selenium\\webdriver\\firefox\\webdriver_prefs.json',
   'DATA'),
  ('selenium\\webdriver\\firefox\\webdriver.xpi',
   'd:\\program files '
   '(x86)\\python35-32\\lib\\site-packages\\selenium\\webdriver\\firefox\\webdriver.xpi',
   'DATA')],
 [])
